Data/Day 3/Pos1R1R1(CH2).csv

Record Length,2500,Points,-250.00000000E-3,2.3999999E-3,
Sample Interval,199.99999495E-6,s,-249.79999661E-3,1.9999999E-3,
Trigger Point,1.2500001E3,Samples,-249.59999323E-3,1.4000000E-3,
,,,-249.40000474E-3,1.6000000E-3,
,,,-249.20000136E-3,1.9999999E-3,
,,,-248.99999797E-3,1.6000000E-3,
Source,CH2,,-248.79999459E-3,1.6000000E-3,
Vertical Units,Volts,,-248.60000610E-3,1.4000000E-3,
Vertical Scale,4.99999987E-3,,-248.40000272E-3,799.999979790E-6,
Vertical Offset,0,,-248.19999933E-3,2.3999999E-3,
Horizontal Units,s,,-247.99999595E-3,1.9999999E-3,
Horizontal Scale,49.99999874E-3,,-247.80000746E-3,0.0,
Pt Fmt,Y,,-247.60000408E-3,3.39999981E-3,
Yzero,-360.00000000E-3,,-247.40000069E-3,2.6000000E-3,
Probe Atten,1.000000,,-247.19999731E-3,-399.99998990E-6,
,,,-246.99999392E-3,399.99998990E-6,
Note,TBS 1052B-EDU - 06:41:33 p.m.   12/06/2018,,-246.80000544E-3,799.999979790E-6,
,,,-246.60000205E-3,1.9999999E-3,
,,,-246.39999866E-3,1.8000000E-3,
,,,-246.19999528E-3,799.999979790E-6,
,,,-246.00000679E-3,199.99999495E-6,
,,,-245.80000341E-3,1.8000000E-3,
,,,-245.60000002E-3,799.999979790E-6,
,,,-245.39999664E-3,1.1999999E-3,
,,,-245.19999325E-3,1.1999999E-3,
,,,-245.00000477E-3,1.8000000E-3,
,,,-244.80000138E-3,2.2000000E-3,
,,,-244.59999800E-3,0.0,
,,,-244.39999461E-3,399.99998990E-6,
,,,-244.20000613E-3,199.99999495E-6,
,,,-244.00000274E-3,-599.999970291E-6,
,,,-243.79999936E-3,-1.9999999E-3,
,,,-243.59999597E-3,-2.6000000E-3,
,,,-243.40000749E-3,-399.99998990E-6,
,,,-243.20000410E-3,-599.999970291E-6,
,,,-243.00000072E-3,-199.99999495E-6,
,,,-242.79999733E-3,-1.6000000E-3,
,,,-242.59999394E-3,-399.99998990E-6,
,,,-242.40000546E-3,-599.999970291E-6,
,,,-242.20000207E-3,-1.4000000E-3,
,,,-241.99999869E-3,-999.999931082E-6,
,,,-241.79999530E-3,-2.2000000E-3,
,,,-241.60000682E-3,-1.4000000E-3,
,,,-241.40000343E-3,-1.8000000E-3,
,,,-241.20000005E-3,-999.999931082E-6,
,,,-240.99999666E-3,-599.999970291E-6,
,,,-240.79999328E-3,-1.6000000E-3,
,,,-240.60000479E-3,-1.6000000E-3,
,,,-240.40000141E-3,-2.2000000E-3,
,,,-240.19999802E-3,-2.2000000E-3,
,,,-239.99999464E-3,-199.99999495E-6,
,,,-239.80000615E-3,-799.999979790E-6,
,,,-239.60000277E-3,-1.6000000E-3,
,,,-239.39999938E-3,0.0,
,,,-239.19999599E-3,-999.999931082E-6,
,,,-239.00000751E-3,-799.999979790E-6,
,,,-238.80000412E-3,-399.99998990E-6,
,,,-238.60000074E-3,-199.99999495E-6,
,,,-238.39999735E-3,-599.999970291E-6,
,,,-238.19999397E-3,399.99998990E-6,
,,,-238.00000548E-3,-1.1999999E-3,
,,,-237.80000210E-3,-2.3999999E-3,
,,,-237.59999871E-3,799.999979790E-6,
,,,-237.39999533E-3,-599.999970291E-6,
,,,-237.20000684E-3,199.99999495E-6,
,,,-237.00000346E-3,399.99998990E-6,
,,,-236.80000007E-3,799.999979790E-6,
,,,-236.59999669E-3,1.9999999E-3,
,,,-236.39999330E-3,-199.99999495E-6,
,,,-236.20000482E-3,1.9999999E-3,
,,,-236.00000143E-3,0.0,
,,,-235.79999804E-3,0.0,
,,,-235.59999466E-3,3.79999983E-3,
,,,-235.40000618E-3,199.99999495E-6,
,,,-235.20000279E-3,3.00000003E-3,
,,,-234.99999940E-3,1.4000000E-3,
,,,-234.79999602E-3,-199.99999495E-6,
,,,-234.60000753E-3,199.99999495E-6,
,,,-234.40000415E-3,-199.99999495E-6,
,,,-234.20000076E-3,1.9999999E-3,
,,,-233.99999738E-3,399.99998990E-6,
,,,-233.79999399E-3,1.8000000E-3,
,,,-233.60000551E-3,3.59999994E-3,
,,,-233.40000212E-3,3.19999992E-3,
,,,-233.19999874E-3,999.999931082E-6,
,,,-232.99999535E-3,1.1999999E-3,
,,,-232.80000687E-3,1.6000000E-3,
,,,-232.60000348E-3,999.999931082E-6,
,,,-232.40000010E-3,1.9999999E-3,
,,,-232.19999671E-3,2.6000000E-3,
,,,-231.99999332E-3,2.6000000E-3,
,,,-231.80000484E-3,2.79999990E-3,
,,,-231.60000145E-3,1.8000000E-3,
,,,-231.39999807E-3,2.6000000E-3,
,,,-231.19999468E-3,1.6000000E-3,
,,,-231.00000620E-3,1.9999999E-3,
,,,-230.80000281E-3,2.3999999E-3,
,,,-230.59999943E-3,3.79999983E-3,
,,,-230.39999604E-3,1.9999999E-3,
,,,-230.20000756E-3,1.4000000E-3,
,,,-230.00000417E-3,799.999979790E-6,
,,,-229.80000079E-3,2.79999990E-3,
,,,-229.59999740E-3,2.6000000E-3,
,,,-229.39999402E-3,1.9999999E-3,
,,,-229.20000553E-3,999.999931082E-6,
,,,-229.00000215E-3,1.6000000E-3,
,,,-228.79999876E-3,1.1999999E-3,
,,,-228.59999537E-3,2.6000000E-3,
,,,-228.40000689E-3,1.8000000E-3,
,,,-228.20000350E-3,2.79999990E-3,
,,,-228.00000012E-3,1.4000000E-3,
,,,-227.79999673E-3,1.1999999E-3,
,,,-227.59999335E-3,2.79999990E-3,
,,,-227.40000486E-3,-399.99998990E-6,
,,,-227.20000148E-3,199.99999495E-6,
,,,-226.99999809E-3,1.6000000E-3,
,,,-226.79999471E-3,-599.999970291E-6,
,,,-226.60000622E-3,3.99999972E-3,
,,,-226.40000284E-3,1.4000000E-3,
,,,-226.19999945E-3,1.6000000E-3,
,,,-225.99999607E-3,1.4000000E-3,
,,,-225.80000758E-3,199.99999495E-6,
,,,-225.60000420E-3,-199.99999495E-6,
,,,-225.40000081E-3,-599.999970291E-6,
,,,-225.19999743E-3,1.9999999E-3,
,,,-224.99999404E-3,-399.99998990E-6,
,,,-224.80000556E-3,1.1999999E-3,
,,,-224.60000217E-3,1.8000000E-3,
,,,-224.39999878E-3,1.1999999E-3,
,,,-224.19999540E-3,-1.4000000E-3,
,,,-224.00000691E-3,-599.999970291E-6,
,,,-223.80000353E-3,-399.99998990E-6,
,,,-223.60000014E-3,599.999970291E-6,
,,,-223.39999676E-3,-599.999970291E-6,
,,,-223.19999337E-3,-199.99999495E-6,
,,,-223.00000489E-3,-1.1999999E-3,
,,,-222.80000150E-3,-999.999931082E-6,
,,,-222.59999812E-3,-799.999979790E-6,
,,,-222.39999473E-3,-1.6000000E-3,
,,,-222.20000625E-3,-1.6000000E-3,
,,,-222.00000286E-3,-1.1999999E-3,
,,,-221.79999948E-3,-1.8000000E-3,
,,,-221.59999609E-3,-1.8000000E-3,
,,,-221.40000761E-3,-1.4000000E-3,
,,,-221.20000422E-3,-2.2000000E-3,
,,,-221.00000083E-3,-1.6000000E-3,
,,,-220.79999745E-3,-999.999931082E-6,
,,,-220.59999406E-3,-2.6000000E-3,
,,,-220.40000558E-3,-799.999979790E-6,
,,,-220.20000219E-3,-1.6000000E-3,
,,,-219.99999881E-3,-1.1999999E-3,
,,,-219.79999542E-3,-799.999979790E-6,
,,,-219.60000694E-3,-1.4000000E-3,
,,,-219.40000355E-3,0.0,
,,,-219.20000017E-3,-599.999970291E-6,
,,,-218.99999678E-3,-799.999979790E-6,
,,,-218.79999340E-3,-1.1999999E-3,
,,,-218.60000491E-3,-799.999979790E-6,
,,,-218.40000153E-3,-1.6000000E-3,
,,,-218.19999814E-3,-599.999970291E-6,
,,,-217.99999475E-3,1.1999999E-3,
,,,-217.80000627E-3,1.1999999E-3,
,,,-217.60000288E-3,1.6000000E-3,
,,,-217.39999950E-3,-399.99998990E-6,
,,,-217.19999611E-3,1.8000000E-3,
,,,-217.00000763E-3,399.99998990E-6,
,,,-216.80000424E-3,199.99999495E-6,
,,,-216.60000086E-3,0.0,
,,,-216.39999747E-3,199.99999495E-6,
,,,-216.19999409E-3,599.999970291E-6,
,,,-216.00000560E-3,3.00000003E-3,
,,,-215.80000222E-3,399.99998990E-6,
,,,-215.59999883E-3,399.99998990E-6,
,,,-215.39999545E-3,1.9999999E-3,
,,,-215.20000696E-3,2.3999999E-3,
,,,-215.00000358E-3,599.999970291E-6,
,,,-214.80000019E-3,-399.99998990E-6,
,,,-214.59999681E-3,599.999970291E-6,
,,,-214.40000832E-3,-799.999979790E-6,
,,,-214.20000494E-3,1.6000000E-3,
,,,-214.00000155E-3,-199.99999495E-6,
,,,-213.79999816E-3,1.8000000E-3,
,,,-213.59999478E-3,1.6000000E-3,
,,,-213.40000629E-3,3.00000003E-3,
,,,-213.20000291E-3,1.6000000E-3,
,,,-212.99999952E-3,1.1999999E-3,
,,,-212.79999614E-3,1.9999999E-3,
,,,-212.60000765E-3,199.99999495E-6,
,,,-212.40000427E-3,1.8000000E-3,
,,,-212.20000088E-3,2.2000000E-3,
,,,-211.99999750E-3,2.3999999E-3,
,,,-211.79999411E-3,2.3999999E-3,
,,,-211.60000563E-3,2.79999990E-3,
,,,-211.40000224E-3,2.6000000E-3,
,,,-211.19999886E-3,1.8000000E-3,
,,,-210.99999547E-3,1.8000000E-3,
,,,-210.80000699E-3,3.79999983E-3,
,,,-210.60000360E-3,1.8000000E-3,
,,,-210.40000021E-3,1.8000000E-3,
,,,-210.19999683E-3,1.9999999E-3,
,,,-210.00000834E-3,1.8000000E-3,
,,,-209.80000496E-3,1.6000000E-3,
,,,-209.60000157E-3,3.19999992E-3,
,,,-209.39999819E-3,1.4000000E-3,
,,,-209.19999480E-3,2.6000000E-3,
,,,-209.00000632E-3,2.3999999E-3,
,,,-208.80000293E-3,999.999931082E-6,
,,,-208.59999955E-3,1.6000000E-3,
,,,-208.39999616E-3,599.999970291E-6,
,,,-208.20000768E-3,1.1999999E-3,
,,,-208.00000429E-3,1.9999999E-3,
,,,-207.80000091E-3,599.999970291E-6,
,,,-207.59999752E-3,1.1999999E-3,
,,,-207.39999413E-3,599.999970291E-6,
,,,-207.20000565E-3,1.4000000E-3,
,,,-207.00000226E-3,-799.999979790E-6,
,,,-206.79999888E-3,1.4000000E-3,
,,,-206.59999549E-3,0.0,
,,,-206.40000701E-3,799.999979790E-6,
,,,-206.20000362E-3,-599.999970291E-6,
,,,-206.00000024E-3,799.999979790E-6,
,,,-205.79999685E-3,-1.4000000E-3,
,,,-205.60000837E-3,-1.8000000E-3,
,,,-205.40000498E-3,599.999970291E-6,
,,,-205.20000160E-3,-199.99999495E-6,
,,,-204.99999821E-3,2.6000000E-3,
,,,-204.79999483E-3,-2.3999999E-3,
,,,-204.60000634E-3,1.9999999E-3,
,,,-204.40000296E-3,3.19999992E-3,
,,,-204.19999957E-3,-399.99998990E-6,
,,,-203.99999619E-3,-799.999979790E-6,
,,,-203.80000770E-3,-999.999931082E-6,
,,,-203.60000432E-3,-1.4000000E-3,
,,,-203.40000093E-3,-1.1999999E-3,
,,,-203.19999754E-3,0.0,
,,,-202.99999416E-3,-799.999979790E-6,
,,,-202.80000567E-3,-799.999979790E-6,
,,,-202.60000229E-3,-1.6000000E-3,
,,,-202.39999890E-3,-1.4000000E-3,
,,,-202.19999552E-3,-1.1999999E-3,
,,,-202.00000703E-3,-799.999979790E-6,
,,,-201.80000365E-3,-999.999931082E-6,
,,,-201.60000026E-3,-1.4000000E-3,
,,,-201.39999688E-3,-1.1999999E-3,
,,,-201.20000839E-3,-1.6000000E-3,
,,,-201.00000501E-3,-1.4000000E-3,
,,,-200.80000162E-3,-1.1999999E-3,
,,,-200.59999824E-3,-1.6000000E-3,
,,,-200.39999485E-3,-199.99999495E-6,
,,,-200.20000637E-3,-999.999931082E-6,
,,,-200.00000298E-3,-2.2000000E-3,
,,,-199.79999959E-3,-1.1999999E-3,
,,,-199.59999621E-3,-1.9999999E-3,
,,,-199.40000772E-3,-1.6000000E-3,
,,,-199.20000434E-3,-999.999931082E-6,
,,,-199.00000095E-3,-599.999970291E-6,
,,,-198.79999757E-3,0.0,
,,,-198.59999418E-3,-3.39999981E-3,
,,,-198.40000570E-3,-199.99999495E-6,
,,,-198.20000231E-3,199.99999495E-6,
,,,-197.99999893E-3,0.0,
,,,-197.79999554E-3,0.0,
,,,-197.60000706E-3,799.999979790E-6,
,,,-197.40000367E-3,799.999979790E-6,
,,,-197.20000029E-3,-1.4000000E-3,
,,,-196.99999690E-3,1.6000000E-3,
,,,-196.80000842E-3,-1.6000000E-3,
,,,-196.60000503E-3,-1.1999999E-3,
,,,-196.40000165E-3,-1.8000000E-3,
,,,-196.19999826E-3,-399.99998990E-6,
,,,-195.99999487E-3,-399.99998990E-6,
,,,-195.80000639E-3,999.999931082E-6,
,,,-195.60000300E-3,-1.4000000E-3,
,,,-195.39999962E-3,1.4000000E-3,
,,,-195.19999623E-3,199.99999495E-6,
,,,-195.00000775E-3,599.999970291E-6,
,,,-194.80000436E-3,1.4000000E-3,
,,,-194.60000098E-3,399.99998990E-6,
,,,-194.39999759E-3,2.3999999E-3,
,,,-194.19999421E-3,0.0,
,,,-194.00000572E-3,2.3999999E-3,
,,,-193.80000234E-3,2.6000000E-3,
,,,-193.59999895E-3,3.19999992E-3,
,,,-193.39999557E-3,2.2000000E-3,
,,,-193.20000708E-3,1.9999999E-3,
,,,-193.00000370E-3,1.8000000E-3,
,,,-192.80000031E-3,1.6000000E-3,
,,,-192.59999692E-3,1.9999999E-3,
,,,-192.40000844E-3,2.2000000E-3,
,,,-192.20000505E-3,2.3999999E-3,
,,,-192.00000167E-3,1.9999999E-3,
,,,-191.79999828E-3,3.00000003E-3,
,,,-191.59999490E-3,2.3999999E-3,
,,,-191.40000641E-3,2.3999999E-3,
,,,-191.20000303E-3,2.3999999E-3,
,,,-190.99999964E-3,1.8000000E-3,
,,,-190.79999626E-3,2.79999990E-3,
,,,-190.60000777E-3,2.6000000E-3,
,,,-190.40000439E-3,3.19999992E-3,
,,,-190.20000100E-3,2.2000000E-3,
,,,-189.99999762E-3,1.9999999E-3,
,,,-189.79999423E-3,2.2000000E-3,
,,,-189.60000575E-3,1.9999999E-3,
,,,-189.40000236E-3,1.9999999E-3,
,,,-189.19999897E-3,999.999931082E-6,
,,,-188.99999559E-3,3.19999992E-3,
,,,-188.80000710E-3,999.999931082E-6,
,,,-188.60000372E-3,3.19999992E-3,
,,,-188.40000033E-3,2.3999999E-3,
,,,-188.19999695E-3,1.8000000E-3,
,,,-188.00000846E-3,1.8000000E-3,
,,,-187.80000508E-3,799.999979790E-6,
,,,-187.60000169E-3,599.999970291E-6,
,,,-187.39999831E-3,-599.999970291E-6,
,,,-187.19999492E-3,2.3999999E-3,
,,,-187.00000644E-3,2.6000000E-3,
,,,-186.80000305E-3,-199.99999495E-6,
,,,-186.59999967E-3,1.4000000E-3,
,,,-186.39999628E-3,1.6000000E-3,
,,,-186.20000780E-3,-799.999979790E-6,
,,,-186.00000441E-3,-599.999970291E-6,
,,,-185.80000103E-3,1.6000000E-3,
,,,-185.59999764E-3,0.0,
,,,-185.39999425E-3,-1.4000000E-3,
,,,-185.20000577E-3,599.999970291E-6,
,,,-185.00000238E-3,2.6000000E-3,
,,,-184.79999900E-3,799.999979790E-6,
,,,-184.59999561E-3,399.99998990E-6,
,,,-184.40000713E-3,-1.4000000E-3,
,,,-184.20000374E-3,-999.999931082E-6,
,,,-184.00000036E-3,1.1999999E-3,
,,,-183.79999697E-3,-399.99998990E-6,
,,,-183.60000849E-3,-2.3999999E-3,
,,,-183.40000510E-3,-799.999979790E-6,
,,,-183.20000172E-3,-2.2000000E-3,
,,,-182.99999833E-3,-399.99998990E-6,
,,,-182.79999495E-3,-1.4000000E-3,
,,,-182.60000646E-3,-1.1999999E-3,
,,,-182.40000308E-3,-999.999931082E-6,
,,,-182.19999969E-3,-1.9999999E-3,
,,,-181.99999630E-3,-1.1999999E-3,
,,,-181.80000782E-3,-999.999931082E-6,
,,,-181.60000443E-3,-1.8000000E-3,
,,,-181.40000105E-3,-1.8000000E-3,
,,,-181.19999766E-3,-2.2000000E-3,
,,,-181.00000918E-3,-1.4000000E-3,
,,,-180.80000579E-3,-799.999979790E-6,
,,,-180.60000241E-3,-1.4000000E-3,
,,,-180.39999902E-3,799.999979790E-6,
,,,-180.19999564E-3,-1.4000000E-3,
,,,-180.00000715E-3,-1.1999999E-3,
,,,-179.80000377E-3,-1.1999999E-3,
,,,-179.60000038E-3,-399.99998990E-6,
,,,-179.39999700E-3,-1.1999999E-3,
,,,-179.20000851E-3,-599.999970291E-6,
,,,-179.00000513E-3,-399.99998990E-6,
,,,-178.80000174E-3,-1.8000000E-3,
,,,-178.59999835E-3,-1.1999999E-3,
,,,-178.39999497E-3,-199.99999495E-6,
,,,-178.20000648E-3,-799.999979790E-6,
,,,-178.00000310E-3,-1.1999999E-3,
,,,-177.79999971E-3,-199.99999495E-6,
,,,-177.59999633E-3,-1.6000000E-3,
,,,-177.40000784E-3,-1.4000000E-3,
,,,-177.20000446E-3,199.99999495E-6,
,,,-177.00000107E-3,1.1999999E-3,
,,,-176.79999769E-3,1.9999999E-3,
,,,-176.60000920E-3,399.99998990E-6,
,,,-176.40000582E-3,3.59999994E-3,
,,,-176.20000243E-3,-3.39999981E-3,
,,,-175.99999905E-3,3.00000003E-3,
,,,-175.79999566E-3,-2.2000000E-3,
,,,-175.60000718E-3,999.999931082E-6,
,,,-175.40000379E-3,-199.99999495E-6,
,,,-175.20000041E-3,3.59999994E-3,
,,,-174.99999702E-3,0.0,
,,,-174.80000854E-3,1.1999999E-3,
,,,-174.60000515E-3,799.999979790E-6,
,,,-174.40000176E-3,1.1999999E-3,
,,,-174.19999838E-3,399.99998990E-6,
,,,-173.99999499E-3,2.3999999E-3,
,,,-173.80000651E-3,3.59999994E-3,
,,,-173.60000312E-3,2.79999990E-3,
,,,-173.39999974E-3,1.6000000E-3,
,,,-173.19999635E-3,1.1999999E-3,
,,,-173.00000787E-3,1.6000000E-3,
,,,-172.80000448E-3,2.3999999E-3,
,,,-172.60000110E-3,2.2000000E-3,
,,,-172.39999771E-3,2.2000000E-3,
,,,-172.20000923E-3,1.8000000E-3,
,,,-172.00000584E-3,2.6000000E-3,
,,,-171.80000246E-3,2.79999990E-3,
,,,-171.59999907E-3,3.19999992E-3,
,,,-171.39999568E-3,2.6000000E-3,
,,,-171.20000720E-3,2.2000000E-3,
,,,-171.00000381E-3,1.8000000E-3,
,,,-170.80000043E-3,2.6000000E-3,
,,,-170.59999704E-3,3.00000003E-3,
,,,-170.40000856E-3,1.6000000E-3,
,,,-170.20000517E-3,2.6000000E-3,
,,,-170.00000179E-3,2.3999999E-3,
,,,-169.79999840E-3,1.4000000E-3,
,,,-169.59999502E-3,2.79999990E-3,
,,,-169.40000653E-3,1.9999999E-3,
,,,-169.20000315E-3,999.999931082E-6,
,,,-168.99999976E-3,799.999979790E-6,
,,,-168.79999638E-3,1.4000000E-3,
,,,-168.60000789E-3,2.6000000E-3,
,,,-168.40000451E-3,3.79999983E-3,
,,,-168.20000112E-3,599.999970291E-6,
,,,-167.99999774E-3,999.999931082E-6,
,,,-167.80000925E-3,1.8000000E-3,
,,,-167.60000587E-3,199.99999495E-6,
,,,-167.40000248E-3,1.4000000E-3,
,,,-167.19999909E-3,1.6000000E-3,
,,,-166.99999571E-3,599.999970291E-6,
,,,-166.80000722E-3,199.99999495E-6,
,,,-166.60000384E-3,599.999970291E-6,
,,,-166.40000045E-3,799.999979790E-6,
,,,-166.19999707E-3,1.8000000E-3,
,,,-166.00000858E-3,-399.99998990E-6,
,,,-165.80000520E-3,-199.99999495E-6,
,,,-165.60000181E-3,599.999970291E-6,
,,,-165.39999843E-3,2.79999990E-3,
,,,-165.19999504E-3,-2.6000000E-3,
,,,-165.00000656E-3,-799.999979790E-6,
,,,-164.80000317E-3,-1.6000000E-3,
,,,-164.59999979E-3,799.999979790E-6,
,,,-164.39999640E-3,-2.3999999E-3,
,,,-164.20000792E-3,0.0,
,,,-164.00000453E-3,399.99998990E-6,
,,,-163.80000114E-3,-999.999931082E-6,
,,,-163.59999776E-3,-799.999979790E-6,
,,,-163.40000927E-3,-1.6000000E-3,
,,,-163.20000589E-3,-1.4000000E-3,
,,,-163.00000250E-3,-599.999970291E-6,
,,,-162.79999912E-3,-1.4000000E-3,
,,,-162.59999573E-3,-1.1999999E-3,
,,,-162.40000725E-3,-799.999979790E-6,
,,,-162.20000386E-3,-1.1999999E-3,
,,,-162.00000048E-3,-1.8000000E-3,
,,,-161.79999709E-3,-1.4000000E-3,
,,,-161.60000861E-3,-1.1999999E-3,
,,,-161.40000522E-3,-1.1999999E-3,
,,,-161.20000184E-3,-1.6000000E-3,
,,,-160.99999845E-3,-1.1999999E-3,
,,,-160.79999506E-3,-2.3999999E-3,
,,,-160.60000658E-3,-1.6000000E-3,
,,,-160.40000319E-3,-799.999979790E-6,
,,,-160.19999981E-3,-799.999979790E-6,
,,,-159.99999642E-3,-399.99998990E-6,
,,,-159.80000794E-3,-999.999931082E-6,
,,,-159.60000455E-3,-1.1999999E-3,
,,,-159.40000117E-3,-1.6000000E-3,
,,,-159.19999778E-3,-1.6000000E-3,
,,,-159.00000930E-3,399.99998990E-6,
,,,-158.80000591E-3,-599.999970291E-6,
,,,-158.60000253E-3,-799.999979790E-6,
,,,-158.39999914E-3,-599.999970291E-6,
,,,-158.19999576E-3,-2.3999999E-3,
,,,-158.00000727E-3,199.99999495E-6,
,,,-157.80000389E-3,-599.999970291E-6,
,,,-157.60000050E-3,-599.999970291E-6,
,,,-157.39999712E-3,-199.99999495E-6,
,,,-157.20000863E-3,-1.1999999E-3,
,,,-157.00000525E-3,599.999970291E-6,
,,,-156.80000186E-3,1.8000000E-3,
,,,-156.59999847E-3,2.2000000E-3,
,,,-156.39999509E-3,-199.99999495E-6,
,,,-156.20000660E-3,-599.999970291E-6,
,,,-156.00000322E-3,999.999931082E-6,
,,,-155.79999983E-3,199.99999495E-6,
,,,-155.59999645E-3,-3.19999992E-3,
,,,-155.40000796E-3,-399.99998990E-6,
,,,-155.20000458E-3,399.99998990E-6,
,,,-155.00000119E-3,-599.999970291E-6,
,,,-154.79999781E-3,-599.999970291E-6,
,,,-154.60000932E-3,999.999931082E-6,
,,,-154.40000594E-3,1.9999999E-3,
,,,-154.20000255E-3,1.4000000E-3,
,,,-153.99999917E-3,1.1999999E-3,
,,,-153.79999578E-3,2.79999990E-3,
,,,-153.60000730E-3,1.8000000E-3,
,,,-153.40000391E-3,1.6000000E-3,
,,,-153.20000052E-3,2.2000000E-3,
,,,-152.99999714E-3,999.999931082E-6,
,,,-152.80000865E-3,1.9999999E-3,
,,,-152.60000527E-3,2.2000000E-3,
,,,-152.40000188E-3,2.3999999E-3,
,,,-152.19999850E-3,1.9999999E-3,
,,,-151.99999511E-3,1.9999999E-3,
,,,-151.80000663E-3,2.2000000E-3,
,,,-151.60000324E-3,1.9999999E-3,
,,,-151.39999986E-3,1.8000000E-3,
,,,-151.19999647E-3,2.79999990E-3,
,,,-151.00000799E-3,2.6000000E-3,
,,,-150.80000460E-3,1.6000000E-3,
,,,-150.60000122E-3,2.2000000E-3,
,,,-150.39999783E-3,1.6000000E-3,
,,,-150.20000935E-3,2.3999999E-3,
,,,-150.00000596E-3,3.99999972E-3,
,,,-149.80000257E-3,2.3999999E-3,
,,,-149.59999919E-3,999.999931082E-6,
,,,-149.39999580E-3,1.1999999E-3,
,,,-149.20000732E-3,999.999931082E-6,
,,,-149.00000393E-3,1.4000000E-3,
,,,-148.80000055E-3,1.9999999E-3,
,,,-148.59999716E-3,1.8000000E-3,
,,,-148.4000087E-3,2.2000000E-3,
,,,-148.2000053E-3,1.8000000E-3,
,,,-148.0000019E-3,1.9999999E-3,
,,,-147.7999985E-3,1.4000000E-3,
,,,-147.5999951E-3,4.79999976E-3,
,,,-147.4000067E-3,-199.99999495E-6,
,,,-147.2000033E-3,3.39999981E-3,
,,,-146.9999999E-3,799.999979790E-6,
,,,-146.7999965E-3,399.99998990E-6,
,,,-146.6000080E-3,0.0,
,,,-146.4000046E-3,599.999970291E-6,
,,,-146.2000012E-3,2.3999999E-3,
,,,-145.9999979E-3,3.19999992E-3,
,,,-145.8000094E-3,999.999931082E-6,
,,,-145.6000060E-3,2.6000000E-3,
,,,-145.4000026E-3,999.999931082E-6,
,,,-145.1999992E-3,3.99999972E-3,
,,,-144.9999958E-3,799.999979790E-6,
,,,-144.8000073E-3,3.79999983E-3,
,,,-144.6000040E-3,-999.999931082E-6,
,,,-144.4000006E-3,-399.99998990E-6,
,,,-144.1999972E-3,-1.1999999E-3,
,,,-144.0000087E-3,-2.2000000E-3,
,,,-143.8000053E-3,-1.4000000E-3,
,,,-143.6000019E-3,-1.4000000E-3,
,,,-143.3999985E-3,-199.99999495E-6,
,,,-143.2000101E-3,-599.999970291E-6,
,,,-143.0000067E-3,-999.999931082E-6,
,,,-142.8000033E-3,0.0,
,,,-142.5999999E-3,-799.999979790E-6,
,,,-142.3999965E-3,-1.4000000E-3,
,,,-142.2000080E-3,-1.1999999E-3,
,,,-142.0000046E-3,-1.4000000E-3,
,,,-141.8000013E-3,-2.2000000E-3,
,,,-141.5999979E-3,-2.79999990E-3,
,,,-141.4000094E-3,-1.1999999E-3,
,,,-141.2000060E-3,-1.4000000E-3,
,,,-141.0000026E-3,-999.999931082E-6,
,,,-140.7999992E-3,-2.2000000E-3,
,,,-140.5999959E-3,-1.1999999E-3,
,,,-140.4000074E-3,-2.6000000E-3,
,,,-140.2000040E-3,-1.1999999E-3,
,,,-140.0000006E-3,-1.6000000E-3,
,,,-139.7999972E-3,0.0,
,,,-139.6000087E-3,-799.999979790E-6,
,,,-139.4000053E-3,-1.1999999E-3,
,,,-139.2000020E-3,-1.1999999E-3,
,,,-138.9999986E-3,-799.999979790E-6,
